0001-01-01 00:00:00,0.00,NaN
2017-01-01 00:00:00,6.44,99.41
2017-01-01 01:00:00,6.64,99.05
2017-01-01 02:00:00,6.74,99.25
2017-01-01 03:00:00,6.54,98.76
2017-01-01 04:00:00,7.20,99.34
2017-01-01 05:00:00,7.10,101.46
2017-01-01 06:00:00,7.10,103.31
2017-01-01 07:00:00,7.10,104.73
2017-01-01 08:00:00,7.59,105.43
2017-01-01 09:00:00,7.49,105.11
2017-01-01 10:00:00,6.43,105.90
2017-01-01 11:00:00,5.17,104.26
2017-01-01 12:00:00,6.24,101.84
2017-01-01 13:00:00,5.09,102.32
2017-01-01 14:00:00,5.56,101.96
2017-01-01 15:00:00,5.95,101.09
2017-01-01 16:00:00,6.14,101.25
2017-01-01 17:00:00,6.43,102.29
2017-01-01 18:00:00,6.33,101.72
2017-01-01 19:00:00,6.81,102.48
2017-01-01 20:00:00,6.53,102.86
2017-01-01 21:00:00,6.81,103.17
2017-01-01 22:00:00,6.43,103.58
2017-01-01 23:00:00,7.59,103.89
